Lab 4/Part3/counter/simulation/qsim/counter_up_dwn_4bit.msim.vcd
$comment
	File created using the following command:
		vcd file counter_up_dwn_4bit.msim.vcd -direction
$end
$date
	Tue Apr 27 19:45:41 2021
$end
$version
	ModelSim Version 10.5b
$end
$timescale
	1ps
$end

$scope module counter_up_dwn_4bit_vlg_vec_tst $end
$var reg 1 ! clock $end
$var reg 1 " enable $end
$var reg 1 # reset $end
$var reg 1 $ up_down $end
$var wire 1 % Q [3] $end
$var wire 1 & Q [2] $end
$var wire 1 ' Q [1] $end
$var wire 1 ( Q [0] $end

$scope module i1 $end
$var wire 1 ) gnd $end
$var wire 1 * vcc $end
$var wire 1 + unknown $end
$var tri1 1 , devclrn $end
$var tri1 1 - devpor $end
$var tri1 1 . devoe $end
$var wire 1 / ~QUARTUS_CREATED_GND~I_combout $end
$var wire 1 0 ~QUARTUS_CREATED_UNVM~~busy $end
$var wire 1 1 ~QUARTUS_CREATED_ADC1~~eoc $end
$var wire 1 2 ~QUARTUS_CREATED_ADC2~~eoc $end
$var wire 1 3 Q[0]~output_o $end
$var wire 1 4 Q[1]~output_o $end
$var wire 1 5 Q[2]~output_o $end
$var wire 1 6 Q[3]~output_o $end
$var wire 1 7 clock~input_o $end
$var wire 1 8 clock~inputclkctrl_outclk $end
$var wire 1 9 reset~input_o $end
$var wire 1 : enable~input_o $end
$var wire 1 ; up_down~input_o $end
$var wire 1 < Q~0_combout $end
$var wire 1 = Q[0]~reg0_q $end
$var wire 1 > Q~1_combout $end
$var wire 1 ? Q~2_combout $end
$var wire 1 @ Q[1]~reg0_q $end
$var wire 1 A Q~3_combout $end
$var wire 1 B Q~4_combout $end
$var wire 1 C Q[2]~reg0_q $end
$var wire 1 D Q~6_combout $end
$var wire 1 E Q~5_combout $end
$var wire 1 F Q~7_combout $end
$var wire 1 G Q[3]~reg0_q $end
$upscope $end
$upscope $end
$enddefinitions $end
#0
$dumpvars
0!
1"
0#
1$
0(
0'
0&
0%
0)
1*
x+
1,
1-
1.
0/
z0
z1
z2
03
04
05
06
07
08
09
1:
1;
1<
0=
1>
0?
0@
0A
0B
0C
0D
1E
0F
0G
$end
#12500
1!
17
18
1=
13
0>
1(
0<
1?
#25000
0!
07
08
#37500
1!
17
18
1@
0=
03
14
1A
1>
1'
0(
0?
1<
1?
#50000
0!
07
08
#62500
1!
17
18
1=
13
0>
1(
0<
1B
0?
#75000
0!
07
08
#87500
1!
17
18
1C
0@
0=
03
04
15
0A
1>
1&
0'
0(
0B
1?
1<
1B
0?
#100000
0!
07
08
#112500
1!
17
18
1=
13
0>
1(
0<
1?
#125000
0"
0!
07
0:
08
1D
0?
1<
#137500
1!
17
18
#150000
0!
07
08
#162500
1!
17
18
#175000
0!
07
08
#187500
1!
17
18
#200000
0!
07
08
#212500
1!
17
18
#225000
0!
07
08
#237500
1!
17
18
#250000
1#
1"
0!
07
1:
19
08
0D
1>
1?
0<
1F
0F
0B
0?
#262500
1!
17
18
0C
0=
03
05
0&
0(
#275000
0!
07
08
#287500
1!
17
18
#300000
0!
07
08
#312500
1!
17
18
#325000
0!
07
08
#337500
1!
17
18
#350000
0!
07
08
#362500
1!
17
18
#375000
0"
0!
07
0:
08
#387500
1!
17
18
#400000
0!
07
08
#412500
1!
17
18
#425000
0!
07
08
#437500
1!
17
18
#450000
0!
07
08
#462500
1!
17
18
#475000
0!
07
08
#487500
1!
17
18
#500000
0$
0#
1"
0!
07
1:
09
0;
08
1A
0>
0E
1<
1B
1?
1F
#512500
1!
17
18
1G
1C
1@
1=
13
14
15
16
1E
0A
1>
1%
1&
1'
1(
0F
0B
0?
0<
1F
1B
1?
#525000
0!
07
08
#537500
1!
17
18
0=
03
0>
0(
1<
0?
#550000
0!
07
08
#562500
1!
17
18
0@
1=
13
04
1A
1>
0'
1(
1?
0<
0?
#575000
0!
07
08
#587500
1!
17
18
0=
03
0>
0(
1<
0B
1?
#600000
0!
07
08
#612500
1!
17
18
0C
1@
1=
13
14
05
0A
1>
0&
1'
1(
1B
0?
0<
0B
1?
#625000
0"
0!
07
0:
08
1D
1<
#637500
1!
17
18
#650000
0!
07
08
#662500
1!
17
18
#675000
0!
07
08
#687500
1!
17
18
#700000
0!
07
08
#712500
1!
17
18
#725000
0!
07
08
#737500
1!
17
18
#750000
1#
1"
0!
07
1:
19
08
0>
0?
1B
1?
#762500
1!
17
18
1C
15
1&
#775000
0!
07
08
#787500
1!
17
18
#800000
0!
07
08
#812500
1!
17
18
#825000
0!
07
08
#837500
1!
17
18
#850000
0!
07
08
#862500
1!
17
18
#875000
0"
0!
07
0:
08
#887500
1!
17
18
#900000
0!
07
08
#912500
1!
17
18
#925000
0!
07
08
#937500
1!
17
18
#950000
0!
07
08
#962500
1!
17
18
#975000
0!
07
08
#987500
1!
17
18
