Lab 4/Part4/flipflop/simulation/qsim/T_Flip_Flop.msim.vcd
$comment
	File created using the following command:
		vcd file T_Flip_Flop.msim.vcd -direction
$end
$date
	Wed Apr 28 15:51:09 2021
$end
$version
	ModelSim Version 10.5b
$end
$timescale
	1ps
$end

$scope module T_Flip_Flop_vlg_vec_tst $end
$var reg 1 ! T $end
$var reg 1 " clock $end
$var wire 1 # Q $end

$scope module i1 $end
$var wire 1 $ gnd $end
$var wire 1 % vcc $end
$var wire 1 & unknown $end
$var tri1 1 ' devclrn $end
$var tri1 1 ( devpor $end
$var tri1 1 ) devoe $end
$var wire 1 * ~QUARTUS_CREATED_GND~I_combout $end
$var wire 1 + ~QUARTUS_CREATED_UNVM~~busy $end
$var wire 1 , ~QUARTUS_CREATED_ADC1~~eoc $end
$var wire 1 - ~QUARTUS_CREATED_ADC2~~eoc $end
$var wire 1 . Q~output_o $end
$var wire 1 / clock~input_o $end
$var wire 1 0 T~input_o $end
$var wire 1 1 Q~0_combout $end
$var wire 1 2 Q~reg0_q $end
$upscope $end
$upscope $end
$enddefinitions $end
#0
$dumpvars
0!
0"
0#
0$
1%
x&
1'
1(
1)
0*
z+
z,
z-
0.
0/
00
01
02
$end
#62500
1"
1/
#125000
1!
0"
10
0/
11
#187500
1"
1/
12
1.
1#
01
#250000
0!
0"
00
0/
11
#312500
1"
1/
#375000
1!
0"
10
0/
01
#437500
1"
1/
02
0.
0#
11
#500000
0!
0"
00
0/
01
#562500
1"
1/
#625000
1!
0"
10
0/
11
#687500
1"
1/
12
1.
1#
01
#750000
0!
0"
00
0/
11
#812500
1"
1/
#875000
1!
0"
10
0/
01
#937500
1"
1/
02
0.
0#
11
