Lab 4/Part4/counter/simulation/qsim/binary_ripple_counter_4bit.msim.vcd
$comment
	File created using the following command:
		vcd file binary_ripple_counter_4bit.msim.vcd -direction
$end
$date
	Wed Apr 28 19:30:15 2021
$end
$version
	ModelSim Version 10.5b
$end
$timescale
	1ps
$end

$scope module binary_ripple_counter_4bit_vlg_vec_tst $end
$var reg 1 ! clock $end
$var reg 1 " T $end
$var wire 1 # Q [3] $end
$var wire 1 $ Q [2] $end
$var wire 1 % Q [1] $end
$var wire 1 & Q [0] $end

$scope module i1 $end
$var wire 1 ' gnd $end
$var wire 1 ( vcc $end
$var wire 1 ) unknown $end
$var tri1 1 * devclrn $end
$var tri1 1 + devpor $end
$var tri1 1 , devoe $end
$var wire 1 - ~QUARTUS_CREATED_GND~I_combout $end
$var wire 1 . ~QUARTUS_CREATED_UNVM~~busy $end
$var wire 1 / ~QUARTUS_CREATED_ADC1~~eoc $end
$var wire 1 0 ~QUARTUS_CREATED_ADC2~~eoc $end
$var wire 1 1 Q[3]~output_o $end
$var wire 1 2 Q[2]~output_o $end
$var wire 1 3 Q[1]~output_o $end
$var wire 1 4 Q[0]~output_o $end
$var wire 1 5 clock~input_o $end
$var wire 1 6 inst|Q~0_combout $end
$var wire 1 7 inst|Q~feeder_combout $end
$var wire 1 8 T~input_o $end
$var wire 1 9 inst|Q~q $end
$var wire 1 : inst1|Q~0_combout $end
$var wire 1 ; inst1|Q~feeder_combout $end
$var wire 1 < inst1|Q~q $end
$var wire 1 = inst2|Q~0_combout $end
$var wire 1 > inst2|Q~feeder_combout $end
$var wire 1 ? inst2|Q~q $end
$var wire 1 @ inst3|Q~0_combout $end
$var wire 1 A inst3|Q~q $end
$upscope $end
$upscope $end
$enddefinitions $end
#0
$dumpvars
0!
1"
0&
0%
0$
0#
0'
1(
x)
1*
1+
1,
0-
z.
z/
z0
01
02
03
04
05
16
17
18
09
1:
1;
0<
1=
1>
0?
1@
0A
$end
#12500
1!
15
19
14
06
1&
07
1<
13
0:
1%
0;
1?
12
0=
1$
0>
1A
11
1#
0@
#25000
0!
05
#37500
1!
15
09
04
16
0&
17
#50000
0!
05
#62500
1!
15
19
14
06
1&
07
0<
03
1:
0%
1;
#75000
0!
05
#87500
1!
15
09
04
16
0&
17
#100000
0!
05
#112500
1!
15
19
14
06
1&
07
1<
13
0:
1%
0;
0?
02
1=
0$
1>
#125000
0!
05
#137500
1!
15
09
04
16
0&
17
#150000
0!
05
#162500
1!
15
19
14
06
1&
07
0<
03
1:
0%
1;
#175000
0!
05
#187500
1!
15
09
04
16
0&
17
#200000
0!
05
#212500
1!
15
19
14
06
1&
07
1<
13
0:
1%
0;
1?
12
0=
1$
0>
0A
01
0#
1@
#225000
0!
05
#237500
1!
15
09
04
16
0&
17
#250000
0!
05
#262500
1!
15
19
14
06
1&
07
0<
03
1:
0%
1;
#275000
0!
05
#287500
1!
15
09
04
16
0&
17
#300000
0!
05
#312500
1!
15
19
14
06
1&
07
1<
13
0:
1%
0;
0?
02
1=
0$
1>
#325000
0!
05
#337500
1!
15
09
04
16
0&
17
#350000
0!
05
#362500
1!
15
19
14
06
1&
07
0<
03
1:
0%
1;
#375000
0!
05
#387500
1!
15
09
04
16
0&
17
#400000
0!
05
#412500
1!
15
19
14
06
1&
07
1<
13
0:
1%
0;
1?
12
0=
1$
0>
1A
11
1#
0@
#425000
0!
05
#437500
1!
15
09
04
16
0&
17
#450000
0!
05
#462500
1!
15
19
14
06
1&
07
0<
03
1:
0%
1;
#475000
0!
05
#487500
1!
15
09
04
16
0&
17
#500000
0"
0!
08
05
#512500
1!
15
#525000
0!
05
#537500
1!
15
#550000
0!
05
#562500
1!
15
#575000
0!
05
#587500
1!
15
#600000
0!
05
#612500
1!
15
#625000
0!
05
#637500
1!
15
#650000
0!
05
#662500
1!
15
#675000
0!
05
#687500
1!
15
#700000
0!
05
#712500
1!
15
#725000
0!
05
#737500
1!
15
#750000
0!
05
#762500
1!
15
#775000
0!
05
#787500
1!
15
#800000
0!
05
#812500
1!
15
#825000
0!
05
#837500
1!
15
#850000
0!
05
#862500
1!
15
#875000
0!
05
#887500
1!
15
#900000
0!
05
#912500
1!
15
#925000
0!
05
#937500
1!
15
#950000
0!
05
#962500
1!
15
#975000
0!
05
#987500
1!
15
