Lab 4/Part1/simulation/qsim/counter_3bit.msim.vcd
$comment
	File created using the following command:
		vcd file counter_3bit.msim.vcd -direction
$end
$date
	Tue Apr 27 14:10:16 2021
$end
$version
	ModelSim Version 10.5b
$end
$timescale
	1ps
$end

$scope module counter_3bit_vlg_vec_tst $end
$var reg 1 ! clock $end
$var reg 1 " enable $end
$var reg 1 # reset $end
$var wire 1 $ Q [2] $end
$var wire 1 % Q [1] $end
$var wire 1 & Q [0] $end

$scope module i1 $end
$var wire 1 ' gnd $end
$var wire 1 ( vcc $end
$var wire 1 ) unknown $end
$var tri1 1 * devclrn $end
$var tri1 1 + devpor $end
$var tri1 1 , devoe $end
$var wire 1 - ~QUARTUS_CREATED_GND~I_combout $end
$var wire 1 . ~QUARTUS_CREATED_UNVM~~busy $end
$var wire 1 / ~QUARTUS_CREATED_ADC1~~eoc $end
$var wire 1 0 ~QUARTUS_CREATED_ADC2~~eoc $end
$var wire 1 1 Q[0]~output_o $end
$var wire 1 2 Q[1]~output_o $end
$var wire 1 3 Q[2]~output_o $end
$var wire 1 4 clock~input_o $end
$var wire 1 5 clock~inputclkctrl_outclk $end
$var wire 1 6 reset~input_o $end
$var wire 1 7 Q~0_combout $end
$var wire 1 8 enable~input_o $end
$var wire 1 9 Q[0]~1_combout $end
$var wire 1 : Q[0]~reg0_q $end
$var wire 1 ; Q~2_combout $end
$var wire 1 < Q[1]~reg0_q $end
$var wire 1 = Q~3_combout $end
$var wire 1 > Q[2]~reg0_q $end
$upscope $end
$upscope $end
$enddefinitions $end
#0
$dumpvars
0!
1"
0#
0&
0%
0$
0'
1(
x)
1*
1+
1,
0-
z.
z/
z0
01
02
03
04
05
06
17
18
19
0:
0;
0<
0=
0>
$end
#25000
1!
14
15
1:
11
1&
1;
07
#50000
0!
04
05
#75000
1!
14
15
1<
0:
01
12
1%
0&
17
#100000
0!
04
05
#125000
1!
14
15
1:
11
1&
1=
0;
07
#150000
0!
04
05
#175000
1!
14
15
1>
0<
0:
01
02
13
1$
0%
0&
17
#200000
0"
0!
04
08
05
09
#225000
1!
14
15
#250000
0!
04
05
#275000
1!
14
15
#300000
0!
04
05
#325000
1!
14
15
#350000
0!
04
05
#375000
1!
14
15
#400000
1#
1"
0!
04
18
16
05
19
0=
07
#425000
1!
14
15
0>
03
0$
#450000
0!
04
05
#475000
1!
14
15
#500000
0!
04
05
#525000
1!
14
15
#550000
0!
04
05
#575000
1!
14
15
#600000
0"
0!
04
08
05
#625000
1!
14
15
#650000
0!
04
05
#675000
1!
14
15
#700000
0!
04
05
#725000
1!
14
15
#750000
0!
04
05
#775000
1!
14
15
#800000
0#
1"
0!
04
18
06
05
17
#825000
1!
14
15
1:
11
1&
1;
07
#850000
0!
04
05
#875000
1!
14
15
1<
0:
01
12
1%
0&
17
#900000
0!
04
05
#925000
1!
14
15
1:
11
1&
1=
0;
07
#950000
0!
04
05
#975000
1!
14
15
1>
0<
0:
01
02
13
1$
0%
0&
17
