Lab 5/stepper/simulation/qsim/stepper_motor_driver.msim.vcd
$comment
	File created using the following command:
		vcd file stepper_motor_driver.msim.vcd -direction
$end
$date
	Wed May 05 21:59:13 2021
$end
$version
	ModelSim Version 10.5b
$end
$timescale
	1ps
$end

$scope module stepper_motor_driver_vlg_vec_tst $end
$var reg 1 ! clock $end
$var reg 1 " dir $end
$var reg 1 # reset $end
$var wire 1 $ Q [3] $end
$var wire 1 % Q [2] $end
$var wire 1 & Q [1] $end
$var wire 1 ' Q [0] $end

$scope module i1 $end
$var wire 1 ( gnd $end
$var wire 1 ) vcc $end
$var wire 1 * unknown $end
$var tri1 1 + devclrn $end
$var tri1 1 , devpor $end
$var tri1 1 - devoe $end
$var wire 1 . ~QUARTUS_CREATED_GND~I_combout $end
$var wire 1 / ~QUARTUS_CREATED_UNVM~~busy $end
$var wire 1 0 ~QUARTUS_CREATED_ADC1~~eoc $end
$var wire 1 1 ~QUARTUS_CREATED_ADC2~~eoc $end
$var wire 1 2 Q[0]~output_o $end
$var wire 1 3 Q[1]~output_o $end
$var wire 1 4 Q[2]~output_o $end
$var wire 1 5 Q[3]~output_o $end
$var wire 1 6 reset~input_o $end
$var wire 1 7 clock~input_o $end
$var wire 1 8 dir~input_o $end
$var wire 1 9 reg_fstate.state2~0_combout $end
$var wire 1 : fstate.state2~q $end
$var wire 1 ; reg_fstate.state3~0_combout $end
$var wire 1 < fstate.state3~q $end
$var wire 1 = reg_fstate.state4~0_combout $end
$var wire 1 > fstate.state4~q $end
$var wire 1 ? reg_fstate.state1~0_combout $end
$var wire 1 @ fstate.state1~q $end
$var wire 1 A Q~0_combout $end
$var wire 1 B Q~1_combout $end
$var wire 1 C Q~2_combout $end
$var wire 1 D Q~3_combout $end
$upscope $end
$upscope $end
$enddefinitions $end
#0
$dumpvars
0!
0"
0#
1'
0&
0%
0$
0(
1)
x*
1+
1,
1-
0.
z/
z0
z1
12
03
04
05
06
07
08
09
0:
0;
0<
1=
0>
1?
0@
0A
0B
0C
0D
$end
#25000
1!
17
1@
1>
1A
0=
1D
1;
15
02
0'
1$
#50000
0!
07
#75000
1!
17
0>
1<
0D
0;
1C
19
14
05
0$
1%
#100000
0!
07
#125000
1!
17
0<
1:
0C
09
1B
0?
13
04
0%
1&
#150000
0!
07
#175000
1!
17
0@
0:
0A
1=
0B
1?
03
12
1'
0&
#200000
0!
07
#225000
1!
17
1@
1>
1A
0=
1D
1;
15
02
0'
1$
#250000
1"
0!
18
07
0?
0;
#275000
1!
17
0@
0>
0A
19
0D
1?
05
12
1'
0$
#300000
0!
07
#325000
1!
17
1@
1:
1A
09
1B
1;
13
02
0'
1&
#350000
0!
07
#375000
1!
17
1<
0:
1C
1=
0B
0;
03
14
1%
0&
#400000
0!
07
#425000
1!
17
1>
0<
1D
0?
0C
0=
04
15
1$
0%
#450000
0!
07
#475000
1!
17
0@
0>
0A
19
0D
1?
05
12
1'
0$
#500000
1#
0"
0!
08
16
07
1A
0?
09
02
0'
#525000
1!
17
#550000
0!
07
#575000
1!
17
#600000
0!
07
#625000
1!
17
#650000
0!
07
#675000
1!
17
#700000
0!
07
#725000
1!
17
#750000
1"
0!
18
07
#775000
1!
17
#800000
0!
07
#825000
1!
17
#850000
0!
07
#875000
1!
17
#900000
0!
07
#925000
1!
17
#950000
0!
07
#975000
1!
17
