Lab 1/simulation/qsim/Lab1.msim.vcd
$comment
	File created using the following command:
		vcd file Lab1.msim.vcd -direction
$end
$date
	Tue Feb 23 11:57:29 2021
$end
$version
	ModelSim Version 10.5b
$end
$timescale
	1ps
$end

$scope module Lab1_3_vlg_vec_tst $end
$var reg 10 ! SW [9:0] $end
$var wire 1 " LEDR [4] $end
$var wire 1 # LEDR [3] $end
$var wire 1 $ LEDR [2] $end
$var wire 1 % LEDR [1] $end
$var wire 1 & LEDR [0] $end

$scope module i1 $end
$var wire 1 ' gnd $end
$var wire 1 ( vcc $end
$var wire 1 ) unknown $end
$var tri1 1 * devclrn $end
$var tri1 1 + devpor $end
$var tri1 1 , devoe $end
$var wire 1 - ~QUARTUS_CREATED_GND~I_combout $end
$var wire 1 . ~QUARTUS_CREATED_UNVM~~busy $end
$var wire 1 / ~QUARTUS_CREATED_ADC1~~eoc $end
$var wire 1 0 ~QUARTUS_CREATED_ADC2~~eoc $end
$var wire 1 1 LEDR[0]~output_o $end
$var wire 1 2 LEDR[1]~output_o $end
$var wire 1 3 LEDR[2]~output_o $end
$var wire 1 4 LEDR[3]~output_o $end
$var wire 1 5 LEDR[4]~output_o $end
$var wire 1 6 SW[1]~input_o $end
$var wire 1 7 SW[0]~input_o $end
$var wire 1 8 LEDR~0_combout $end
$var wire 1 9 SW[2]~input_o $end
$var wire 1 : SW[3]~input_o $end
$var wire 1 ; LEDR~1_combout $end
$var wire 1 < SW[5]~input_o $end
$var wire 1 = SW[4]~input_o $end
$var wire 1 > LEDR~2_combout $end
$var wire 1 ? SW[6]~input_o $end
$var wire 1 @ SW[7]~input_o $end
$var wire 1 A LEDR~3_combout $end
$var wire 1 B SW[8]~input_o $end
$var wire 1 C SW[9]~input_o $end
$var wire 1 D LEDR~4_combout $end
$upscope $end
$upscope $end
$enddefinitions $end
#0
$dumpvars
b0 !
0&
0%
0$
0#
0"
0'
1(
x)
1*
1+
1,
0-
z.
z/
z0
01
02
03
04
05
06
07
08
09
0:
0;
0<
0=
0>
0?
0@
0A
0B
0C
0D
$end
#100000
b1 !
17
18
11
1&
#200000
b11 !
b10 !
16
07
#300000
b11 !
17
08
01
0&
#400000
b111 !
b101 !
b100 !
19
06
07
1;
12
1%
#500000
b101 !
17
18
11
1&
#600000
b111 !
b110 !
16
07
#700000
b111 !
17
08
01
0&
#800000
b1111 !
b1011 !
b1001 !
b1000 !
1:
09
06
07
#900000
b1001 !
17
18
11
1&
