Lab 4/Part3/integrated/simulation/qsim/counter_decoder_7Seg_4bit.msim.vcd
$comment
	File created using the following command:
		vcd file counter_decoder_7Seg_4bit.msim.vcd -direction
$end
$date
	Wed Apr 28 13:16:09 2021
$end
$version
	ModelSim Version 10.5b
$end
$timescale
	1ps
$end

$scope module counter_decoder_7Seg_4bit_vlg_vec_tst $end
$var reg 1 ! clock $end
$var reg 1 " enable $end
$var reg 1 # reset $end
$var reg 1 $ up_down $end
$var wire 1 % Seg7 [6] $end
$var wire 1 & Seg7 [5] $end
$var wire 1 ' Seg7 [4] $end
$var wire 1 ( Seg7 [3] $end
$var wire 1 ) Seg7 [2] $end
$var wire 1 * Seg7 [1] $end
$var wire 1 + Seg7 [0] $end

$scope module i1 $end
$var wire 1 , gnd $end
$var wire 1 - vcc $end
$var wire 1 . unknown $end
$var tri1 1 / devclrn $end
$var tri1 1 0 devpor $end
$var tri1 1 1 devoe $end
$var wire 1 2 ~QUARTUS_CREATED_GND~I_combout $end
$var wire 1 3 ~QUARTUS_CREATED_UNVM~~busy $end
$var wire 1 4 ~QUARTUS_CREATED_ADC1~~eoc $end
$var wire 1 5 ~QUARTUS_CREATED_ADC2~~eoc $end
$var wire 1 6 Seg7[6]~output_o $end
$var wire 1 7 Seg7[5]~output_o $end
$var wire 1 8 Seg7[4]~output_o $end
$var wire 1 9 Seg7[3]~output_o $end
$var wire 1 : Seg7[2]~output_o $end
$var wire 1 ; Seg7[1]~output_o $end
$var wire 1 < Seg7[0]~output_o $end
$var wire 1 = clock~input_o $end
$var wire 1 > clock~inputclkctrl_outclk $end
$var wire 1 ? up_down~input_o $end
$var wire 1 @ reset~input_o $end
$var wire 1 A enable~input_o $end
$var wire 1 B inst2|Q[0]~3_combout $end
$var wire 1 C inst2|Q[1]~5_cout $end
$var wire 1 D inst2|Q[1]~6_combout $end
$var wire 1 E up_down~_wirecell_combout $end
$var wire 1 F inst2|Q[3]~8_combout $end
$var wire 1 G inst2|Q[1]~7 $end
$var wire 1 H inst2|Q[2]~9_combout $end
$var wire 1 I inst2|Q[2]~10 $end
$var wire 1 J inst2|Q[3]~11_combout $end
$var wire 1 K inst|WideOr0~0_combout $end
$var wire 1 L inst|WideOr1~0_combout $end
$var wire 1 M inst|WideOr2~0_combout $end
$var wire 1 N inst|WideOr3~0_combout $end
$var wire 1 O inst|WideOr4~0_combout $end
$var wire 1 P inst|WideOr5~0_combout $end
$var wire 1 Q inst|WideOr6~0_combout $end
$var wire 1 R inst2|Q [3] $end
$var wire 1 S inst2|Q [2] $end
$var wire 1 T inst2|Q [1] $end
$var wire 1 U inst2|Q [0] $end
$upscope $end
$upscope $end
$enddefinitions $end
#0
$dumpvars
0!
1"
0#
1$
0+
0*
0)
0(
0'
0&
1%
0,
1-
x.
1/
10
11
02
z3
z4
z5
16
07
08
09
0:
0;
0<
0=
0>
1?
0@
1A
1B
0C
0D
0E
1F
1G
0H
0I
0J
0K
0L
0M
0N
0O
0P
0Q
0U
0T
0S
0R
$end
#10000
1!
1=
1>
1U
1C
1Q
1N
1M
1L
0B
17
18
19
1<
1+
1(
1'
1&
1D
#20000
0!
0=
0>
#30000
1!
1=
1>
1T
0U
1K
0G
0C
0Q
1O
0N
0M
0D
1B
08
09
1:
0<
06
1G
0%
0+
1)
0(
0'
1H
1D
0H
#40000
0!
0=
0>
#50000
1!
1=
1>
1U
1C
0O
1M
0B
18
0:
0G
0)
1'
0D
1H
#60000
0!
0=
0>
#70000
1!
1=
1>
1S
0T
0U
1I
1G
0C
1Q
1N
0L
0H
1D
1B
07
19
1<
0I
1+
1(
0&
1J
1H
0D
0J
#80000
0!
0=
0>
#90000
1!
1=
1>
1U
1C
0Q
1P
0N
0B
09
1;
0<
0+
1*
0(
1D
#100000
0!
0=
0>
#110000
1!
1=
1>
1T
0U
0G
0C
0M
0D
1B
08
1I
1G
0'
0H
1D
0I
1J
1H
0J
#120000
0!
0=
0>
#125000
0"
0A
0F
0B
#130000
1!
1=
1>
#140000
0!
0=
0>
#150000
1!
1=
1>
#160000
0!
0=
0>
#170000
1!
1=
1>
#180000
0!
0=
0>
#190000
1!
1=
1>
#200000
0!
0=
0>
#210000
1!
1=
1>
#220000
0!
0=
0>
#230000
1!
1=
1>
#240000
0!
0=
0>
#250000
1#
1"
1!
1=
1A
1@
1>
1F
#260000
0!
0=
0>
#270000
1!
1=
1>
0S
0T
0K
0P
0H
0D
0;
16
1%
0*
#280000
0!
0=
0>
#290000
1!
1=
1>
#300000
0!
0=
0>
#310000
1!
1=
1>
#320000
0!
0=
0>
#330000
1!
1=
1>
#340000
0!
0=
0>
#350000
1!
1=
1>
#360000
0!
0=
0>
#370000
1!
1=
1>
#375000
0"
0A
#380000
0!
0=
0>
#390000
1!
1=
1>
#400000
0!
0=
0>
#410000
1!
1=
1>
#420000
0!
0=
0>
#430000
1!
1=
1>
#440000
0!
0=
0>
#450000
1!
1=
1>
#460000
0!
0=
0>
#470000
1!
1=
1>
#480000
0!
0=
0>
#490000
1!
1=
1>
#500000
0$
0#
1"
0!
0=
1A
0@
0?
0>
1E
1B
1J
1H
1D
#510000
1!
1=
1>
1R
1S
1T
1U
1K
1I
0G
1C
1P
1O
1N
0J
0H
0D
0B
19
1:
1;
06
0%
1*
1)
1(
1J
1H
1D
#520000
0!
0=
0>
#530000
1!
1=
1>
0U
0C
0N
1B
09
0(
0D
#540000
0!
0=
0>
#550000
1!
1=
1>
0T
1U
1G
1C
1Q
0P
0O
1L
1D
0B
17
0:
0;
1<
0G
1+
0*
0)
1&
0H
0D
1H
#560000
0!
0=
0>
#570000
1!
1=
1>
0U
0K
0C
0Q
1P
1O
0L
1B
07
1:
1;
0<
16
1G
1%
0+
1*
1)
0&
1D
0H
#580000
0!
0=
0>
#590000
1!
1=
1>
0S
1T
1U
1K
0I
0G
1C
1Q
0O
1H
0D
0B
0:
1<
06
1I
0%
1+
0)
0J
0H
1D
1J
#600000
0!
0=
0>
#610000
1!
1=
1>
0U
0C
0Q
0P
1N
1B
19
0;
0<
0+
0*
1(
0D
#620000
0!
0=
0>
#625000
0"
0A
0F
0B
#630000
1!
1=
1>
#640000
0!
0=
0>
#650000
1!
1=
1>
#660000
0!
0=
0>
#670000
1!
1=
1>
#680000
0!
0=
0>
#690000
1!
1=
1>
#700000
0!
0=
0>
#710000
1!
1=
1>
#720000
0!
0=
0>
#730000
1!
1=
1>
#740000
0!
0=
0>
#750000
1#
1"
1!
1=
1A
1@
1>
1F
1B
#760000
0!
0=
0>
#770000
1!
1=
1>
1S
1U
1C
1P
1O
1H
1:
1;
1*
1)
1D
#780000
0!
0=
0>
#790000
1!
1=
1>
#800000
0!
0=
0>
#810000
1!
1=
1>
#820000
0!
0=
0>
#830000
1!
1=
1>
#840000
0!
0=
0>
#850000
1!
1=
1>
#860000
0!
0=
0>
#870000
1!
1=
1>
#875000
0"
0A
#880000
0!
0=
0>
#890000
1!
1=
1>
#900000
0!
0=
0>
#910000
1!
1=
1>
#920000
0!
0=
0>
#930000
1!
1=
1>
#940000
0!
0=
0>
#950000
1!
1=
1>
#960000
0!
0=
0>
#970000
1!
1=
1>
#980000
0!
0=
0>
#990000
1!
1=
1>
