Lab 4/Part2/integrated/simulation/qsim/counter_decoder_7Seg_3bit.msim.vcd
$comment
	File created using the following command:
		vcd file counter_decoder_7Seg_3bit.msim.vcd -direction
$end
$date
	Tue Apr 27 17:30:33 2021
$end
$version
	ModelSim Version 10.5b
$end
$timescale
	1ps
$end

$scope module counter_decoder_7Seg_3bit_vlg_vec_tst $end
$var reg 1 ! clock $end
$var reg 1 " enable $end
$var reg 1 # reset $end
$var wire 1 $ Seg7 [6] $end
$var wire 1 % Seg7 [5] $end
$var wire 1 & Seg7 [4] $end
$var wire 1 ' Seg7 [3] $end
$var wire 1 ( Seg7 [2] $end
$var wire 1 ) Seg7 [1] $end
$var wire 1 * Seg7 [0] $end

$scope module i1 $end
$var wire 1 + gnd $end
$var wire 1 , vcc $end
$var wire 1 - unknown $end
$var tri1 1 . devclrn $end
$var tri1 1 / devpor $end
$var tri1 1 0 devoe $end
$var wire 1 1 ~QUARTUS_CREATED_GND~I_combout $end
$var wire 1 2 ~QUARTUS_CREATED_UNVM~~busy $end
$var wire 1 3 ~QUARTUS_CREATED_ADC1~~eoc $end
$var wire 1 4 ~QUARTUS_CREATED_ADC2~~eoc $end
$var wire 1 5 Seg7[6]~output_o $end
$var wire 1 6 Seg7[5]~output_o $end
$var wire 1 7 Seg7[4]~output_o $end
$var wire 1 8 Seg7[3]~output_o $end
$var wire 1 9 Seg7[2]~output_o $end
$var wire 1 : Seg7[1]~output_o $end
$var wire 1 ; Seg7[0]~output_o $end
$var wire 1 < clock~input_o $end
$var wire 1 = clock~inputclkctrl_outclk $end
$var wire 1 > reset~input_o $end
$var wire 1 ? inst|Q~3_combout $end
$var wire 1 @ enable~input_o $end
$var wire 1 A inst|Q[1]~1_combout $end
$var wire 1 B inst|Q~0_combout $end
$var wire 1 C inst|Q~2_combout $end
$var wire 1 D inst1|Decoder1~0_combout $end
$var wire 1 E inst1|WideOr0~0_combout $end
$var wire 1 F inst1|WideOr1~0_combout $end
$var wire 1 G inst1|Seg7[3]~0_combout $end
$var wire 1 H inst1|Seg7[2]~1_combout $end
$var wire 1 I inst1|WideOr2~0_combout $end
$var wire 1 J inst1|Decoder1~1_combout $end
$var wire 1 K inst|Q [2] $end
$var wire 1 L inst|Q [1] $end
$var wire 1 M inst|Q [0] $end
$upscope $end
$upscope $end
$enddefinitions $end
#0
$dumpvars
0!
1"
0#
0*
0)
0(
0'
0&
0%
1$
0+
1,
x-
1.
1/
10
01
z2
z3
z4
15
06
07
08
09
0:
0;
0<
0=
0>
1?
1@
1A
0B
0C
1D
1E
1F
0G
1H
1I
0J
0M
0L
0K
$end
#12500
1!
1<
1=
1M
0F
0E
1J
1G
1B
0?
18
1;
16
17
1&
1%
1*
1'
#25000
0!
0<
0=
#37500
1!
1<
1=
1L
0M
0H
1F
0J
0G
0D
1?
05
08
0;
07
19
1(
0&
0*
0'
0$
#50000
0!
0<
0=
#62500
1!
1<
1=
1M
1H
0F
1C
0B
0?
17
09
0(
1&
#75000
0!
0<
0=
#87500
1!
1<
1=
1K
0L
0M
1F
1E
1G
1?
18
06
07
0&
0%
1'
#100000
0!
0<
0=
#112500
1!
1<
1=
1M
0I
0F
0G
1B
0?
08
17
1:
1)
1&
0'
#125000
0!
0<
0=
#137500
1!
1<
1=
1L
0M
1F
1?
07
0&
#150000
0!
0<
0=
#162500
1!
1<
1=
1M
0H
0C
0B
0?
19
1(
#175000
0!
0<
0=
#187500
1!
1<
1=
0K
0L
0M
1I
1H
1D
1?
15
09
0:
0)
0(
1$
#200000
0!
0<
0=
#212500
1!
1<
1=
1M
0F
0E
1J
1G
1B
0?
18
1;
16
17
1&
1%
1*
1'
#225000
0!
0<
0=
#237500
1!
1<
1=
1L
0M
0H
1F
0J
0G
0D
1?
05
08
0;
07
19
1(
0&
0*
0'
0$
#250000
0"
0!
0<
0@
0=
0A
#262500
1!
1<
1=
#275000
0!
0<
0=
#287500
1!
1<
1=
#300000
0!
0<
0=
#312500
1!
1<
1=
#325000
0!
0<
0=
#337500
1!
1<
1=
#350000
0!
0<
0=
#362500
1!
1<
1=
#375000
0!
0<
0=
#387500
1!
1<
1=
#400000
0!
0<
0=
#412500
1!
1<
1=
#425000
0!
0<
0=
#437500
1!
1<
1=
#450000
0!
0<
0=
#462500
1!
1<
1=
#475000
0!
0<
0=
#487500
1!
1<
1=
#500000
1#
1"
0!
0<
1@
1>
0=
1A
0B
0?
#512500
1!
1<
1=
0L
1H
1E
1D
15
06
09
0(
0%
1$
#525000
0!
0<
0=
#537500
1!
1<
1=
#550000
0!
0<
0=
#562500
1!
1<
1=
#575000
0!
0<
0=
#587500
1!
1<
1=
#600000
0!
0<
0=
#612500
1!
1<
1=
#625000
0!
0<
0=
#637500
1!
1<
1=
#650000
0!
0<
0=
#662500
1!
1<
1=
#675000
0!
0<
0=
#687500
1!
1<
1=
#700000
0!
0<
0=
#712500
1!
1<
1=
#725000
0!
0<
0=
#737500
1!
1<
1=
#750000
0"
0!
0<
0@
0=
#762500
1!
1<
1=
#775000
0!
0<
0=
#787500
1!
1<
1=
#800000
0!
0<
0=
#812500
1!
1<
1=
#825000
0!
0<
0=
#837500
1!
1<
1=
#850000
0!
0<
0=
#862500
1!
1<
1=
#875000
0!
0<
0=
#887500
1!
1<
1=
#900000
0!
0<
0=
#912500
1!
1<
1=
#925000
0!
0<
0=
#937500
1!
1<
1=
#950000
0!
0<
0=
#962500
1!
1<
1=
#975000
0!
0<
0=
#987500
1!
1<
1=
