Lab 2/simulation/qsim/Lab2.msim.vcd
$comment
	File created using the following command:
		vcd file Lab2.msim.vcd -direction
$end
$date
	Tue Mar 02 16:02:43 2021
$end
$version
	ModelSim Version 10.5b
$end
$timescale
	1ps
$end

$scope module mux4_to_1_vlg_vec_tst $end
$var reg 1 ! s0 $end
$var reg 1 " s1 $end
$var reg 1 # t0 $end
$var reg 1 $ t1 $end
$var reg 1 % t2 $end
$var reg 1 & t3 $end
$var wire 1 ' out $end

$scope module i1 $end
$var wire 1 ( gnd $end
$var wire 1 ) vcc $end
$var wire 1 * unknown $end
$var tri1 1 + devclrn $end
$var tri1 1 , devpor $end
$var tri1 1 - devoe $end
$var wire 1 . ~QUARTUS_CREATED_GND~I_combout $end
$var wire 1 / ~QUARTUS_CREATED_UNVM~~busy $end
$var wire 1 0 ~QUARTUS_CREATED_ADC1~~eoc $end
$var wire 1 1 ~QUARTUS_CREATED_ADC2~~eoc $end
$var wire 1 2 out~output_o $end
$var wire 1 3 s1~input_o $end
$var wire 1 4 t0~input_o $end
$var wire 1 5 t1~input_o $end
$var wire 1 6 s0~input_o $end
$var wire 1 7 WideOr0~0_combout $end
$var wire 1 8 t2~input_o $end
$var wire 1 9 t3~input_o $end
$var wire 1 : WideOr0~1_combout $end
$upscope $end
$upscope $end
$enddefinitions $end
#0
$dumpvars
0!
0"
0#
0$
0%
0&
0'
0(
1)
x*
1+
1,
1-
0.
z/
z0
z1
02
03
04
05
06
07
08
09
0:
$end
#12500
1#
14
17
1:
12
1'
#25000
1$
0#
04
15
07
0:
02
0'
#37500
1#
14
17
1:
12
1'
#50000
1%
0$
0#
04
05
18
07
0:
02
0'
#62500
1#
14
17
1:
12
1'
#75000
1&
1$
0#
04
15
19
07
0:
02
0'
#87500
1#
14
17
1:
12
1'
#100000
1!
0%
0$
0#
04
05
08
16
07
0:
02
0'
#112500
1#
14
#125000
1$
0#
04
15
17
1:
12
1'
#137500
1#
14
#150000
0&
1%
0$
0#
04
05
18
09
07
0:
02
0'
#162500
1#
14
#175000
1$
0#
04
15
17
1:
12
1'
#187500
1#
14
#200000
1"
0!
0%
0$
0#
04
05
08
06
13
07
0:
02
0'
#212500
1#
14
#225000
1&
1$
0#
04
15
19
#237500
1#
14
#250000
1%
0$
0#
04
05
18
1:
12
1'
#262500
1#
14
#275000
1$
0#
04
15
#287500
1#
14
#300000
1!
0&
0%
0$
0#
04
05
08
09
16
17
0:
02
0'
#312500
1#
14
#325000
1$
0#
04
15
#337500
1#
14
#350000
1%
0$
0#
04
05
18
#362500
1#
14
#375000
1&
1$
0#
04
15
19
1:
12
1'
#387500
1#
14
#400000
0"
0!
0%
0$
0#
04
05
08
06
03
07
0:
02
0'
#412500
1#
14
17
1:
12
1'
#425000
1$
0#
04
15
07
0:
02
0'
#437500
1#
14
17
1:
12
1'
#450000
0&
1%
0$
0#
04
05
18
09
07
0:
02
0'
#462500
1#
14
17
1:
12
1'
#475000
1$
0#
04
15
07
0:
02
0'
#487500
1#
14
17
1:
12
1'
#500000
1!
0%
0$
0#
04
05
08
16
07
0:
02
0'
#512500
1#
14
#525000
1&
1$
0#
04
15
19
17
1:
12
1'
#537500
1#
14
#550000
1%
0$
0#
04
05
18
07
0:
02
0'
#562500
1#
14
#575000
1$
0#
04
15
17
1:
12
1'
#587500
1#
14
#600000
1"
0!
0&
0%
0$
0#
04
05
08
09
06
13
07
0:
02
0'
#612500
1#
14
#625000
1$
0#
04
15
#637500
1#
14
#650000
1%
0$
0#
04
05
18
1:
12
1'
#662500
1#
14
#675000
1&
1$
0#
04
15
19
#687500
1#
14
#700000
1!
0%
0$
0#
04
05
08
16
17
0:
02
0'
1:
12
1'
#712500
1#
14
#725000
1$
0#
04
15
#737500
1#
14
#750000
0&
1%
0$
0#
04
05
18
09
0:
02
0'
#762500
1#
14
#775000
1$
0#
04
15
#787500
1#
14
#800000
0"
0!
0%
0$
0#
04
05
08
06
03
07
1:
12
1'
0:
02
0'
#812500
1#
14
17
1:
12
1'
#825000
1&
1$
0#
04
15
19
07
0:
02
0'
#837500
1#
14
17
1:
12
1'
#850000
1%
0$
0#
04
05
18
07
0:
02
0'
#862500
1#
14
17
1:
12
1'
#875000
1$
0#
04
15
07
0:
02
0'
#887500
1#
14
17
1:
12
1'
#900000
1!
0&
0%
0$
0#
04
05
08
09
16
07
0:
02
0'
#912500
1#
14
#925000
1$
0#
04
15
17
1:
12
1'
#937500
1#
14
#950000
1%
0$
0#
04
05
18
07
0:
02
0'
#962500
1#
14
#975000
1&
1$
0#
04
15
19
17
1:
12
1'
#987500
1#
14
