Lab 4/Part3/decoder/simulation/qsim/decoder_4bit_7Seg_Neg.msim.vcd
$comment
	File created using the following command:
		vcd file decoder_4bit_7Seg_Neg.msim.vcd -direction
$end
$date
	Tue Apr 27 20:10:08 2021
$end
$version
	ModelSim Version 10.5b
$end
$timescale
	1ps
$end

$scope module decoder_4bit_7Seg_Neg_vlg_vec_tst $end
$var reg 4 ! DIG [3:0] $end
$var wire 1 " Seg7 [6] $end
$var wire 1 # Seg7 [5] $end
$var wire 1 $ Seg7 [4] $end
$var wire 1 % Seg7 [3] $end
$var wire 1 & Seg7 [2] $end
$var wire 1 ' Seg7 [1] $end
$var wire 1 ( Seg7 [0] $end

$scope module i1 $end
$var wire 1 ) gnd $end
$var wire 1 * vcc $end
$var wire 1 + unknown $end
$var tri1 1 , devclrn $end
$var tri1 1 - devpor $end
$var tri1 1 . devoe $end
$var wire 1 / ~QUARTUS_CREATED_GND~I_combout $end
$var wire 1 0 ~QUARTUS_CREATED_UNVM~~busy $end
$var wire 1 1 ~QUARTUS_CREATED_ADC1~~eoc $end
$var wire 1 2 ~QUARTUS_CREATED_ADC2~~eoc $end
$var wire 1 3 Seg7[0]~output_o $end
$var wire 1 4 Seg7[1]~output_o $end
$var wire 1 5 Seg7[2]~output_o $end
$var wire 1 6 Seg7[3]~output_o $end
$var wire 1 7 Seg7[4]~output_o $end
$var wire 1 8 Seg7[5]~output_o $end
$var wire 1 9 Seg7[6]~output_o $end
$var wire 1 : DIG[1]~input_o $end
$var wire 1 ; DIG[0]~input_o $end
$var wire 1 < DIG[2]~input_o $end
$var wire 1 = DIG[3]~input_o $end
$var wire 1 > WideOr6~0_combout $end
$var wire 1 ? WideOr5~0_combout $end
$var wire 1 @ WideOr4~0_combout $end
$var wire 1 A WideOr3~0_combout $end
$var wire 1 B WideOr2~0_combout $end
$var wire 1 C WideOr1~0_combout $end
$var wire 1 D WideOr0~0_combout $end
$upscope $end
$upscope $end
$enddefinitions $end
#0
$dumpvars
b0 !
0(
0'
0&
0%
0$
0#
1"
0)
1*
x+
1,
1-
1.
0/
z0
z1
z2
03
04
05
06
07
08
19
0:
0;
0<
0=
0>
0?
0@
0A
0B
0C
0D
$end
#60000
b1 !
1;
1C
1B
1A
1>
13
16
17
18
1#
1$
1%
1(
#120000
b11 !
b10 !
1:
0;
1D
0B
0A
1@
0>
03
15
06
07
09
0"
0$
0%
1&
0(
#180000
b11 !
1;
1B
0@
05
17
1$
0&
#240000
b111 !
b101 !
b100 !
1<
0:
0;
0C
1A
1>
13
16
08
0#
1%
1(
#300000
b101 !
1;
0A
1?
0>
03
14
06
0%
1'
0(
#360000
b111 !
b110 !
1:
0;
0B
07
0$
#420000
b111 !
1;
0D
1B
1A
0?
04
16
17
19
1"
1$
1%
0'
#480000
b1111 !
b1011 !
b1001 !
b1000 !
1=
0<
0:
0;
1D
0B
0A
06
07
09
0"
0$
0%
#540000
b1001 !
1;
1B
1A
16
17
1$
1%
#600000
b1011 !
b1010 !
1:
0;
0B
07
0$
#660000
b1011 !
1;
0A
1?
1>
13
14
06
0%
1'
1(
#720000
b1111 !
b1101 !
b1100 !
1<
0:
0;
0D
1@
0>
03
15
19
1"
1&
0(
#780000
b1101 !
1;
1D
1C
0@
0?
1>
13
04
05
18
09
0"
1#
0&
0'
1(
#840000
b1111 !
b1110 !
1:
0;
0C
1@
1?
0>
03
14
15
08
0#
1&
1'
0(
#900000
b1111 !
1;
1A
16
1%
#960000
b111 !
b11 !
b1 !
b0 !
0=
0<
0:
0;
0D
0A
0@
0?
04
05
06
19
1"
0%
0&
0'
